13-04-17-15:40:14: 6 arquivos encontrados
13-04-17-15:40:14: Iniciando parsing do arquivo  1 de 6 - documento-derivado.rtf
13-04-17-15:40:17: Erro no parsing do arquivo documento-derivado.rtf
13-04-17-15:40:17: File 'lexml/documento-derivado.xml' cannot be written to
13-04-17-15:40:17: Iniciando parsing do arquivo  2 de 6 - PLS201000003.rtf
13-04-17-15:40:19: Erro no parsing do arquivo PLS201000003.rtf
13-04-17-15:40:19: File 'lexml/PLS201000003.xml' cannot be written to
13-04-17-15:40:19: Iniciando parsing do arquivo  3 de 6 - PLS201000207.rtf
13-04-17-15:40:19: Erro no parsing do arquivo PLS201000207.rtf
13-04-17-15:40:19: logs/PLS201000207.log (Permission denied)
13-04-17-15:40:19: Iniciando parsing do arquivo  4 de 6 - PLS201000004.rtf
13-04-17-15:40:20: Erro no parsing do arquivo PLS201000004.rtf
13-04-17-15:40:20: File 'lexml/PLS201000004.xml' cannot be written to
13-04-17-15:40:20: Iniciando parsing do arquivo  5 de 6 - PLS201000001.rtf
13-04-17-15:40:21: Erro no parsing do arquivo PLS201000001.rtf
13-04-17-15:40:21: File 'lexml/PLS201000001.xml' cannot be written to
13-04-17-15:40:21: Iniciando parsing do arquivo  6 de 6 - PLS201000002.rtf
13-04-17-15:40:21: Erro no parsing do arquivo PLS201000002.rtf
13-04-17-15:40:21: File 'lexml/PLS201000002.xml' cannot be written to
13-04-17-15:40:21: Fim do processamento.
